R for Paleolimnology
…
6.2 Terminology

6.2.1 Grouping Variables

Many statistical test functions in R use a formula to specify a value column and a grouping column for a test using a data frame as input. This is usually a column that contains data labels like “group1”, “group1”, “group1”, “group2”, “group2”, etc., whose values divide observations into groups for which we want to test significance. In our sample data frame climate_data, these variables are station_name, year, month. The other variables represent measured values, whereas the grouping variables give context to each row. The formula used as input to statistical test functions is generally in the form measure_var ~ grouping_var, where measure_var and grouping_var are columns in a data frame.

Sometimes it is necessary to use column names as grouping variables. In the case of the climate_data data frame, one might want to test whether the mean monthly temperature (meantemp) is significantly different than the extreme maximum monthly temperature (extrmaxtemp). Because these values are stored in two columns, there is no grouping variable that can separate these two sets of observations. This operation is possible using the gather() function.

climate_data_mean_max_temp <- climate_data %>%
  select(station_name, year, month, meantemp, extrmaxtemp) %>%
  gather(meantemp, extrmaxtemp, key = "temperature_type", value = "temp")
climate_data_mean_max_temp

## # A tibble: 192 x 5
##    station_name      year month temperature_type   temp
##    <chr>            <int> <int> <chr>             <dbl>
##  1 KENTVILLE CDA CS  2000     1 meantemp         - 4.20
##  2 KENTVILLE CDA CS  2000     2 meantemp         - 2.60
##  3 KENTVILLE CDA CS  2000     3 meantemp           1.60
##  4 KENTVILLE CDA CS  2000     4 meantemp           6.40
##  5 KENTVILLE CDA CS  2000     5 meantemp          10.0 
##  6 KENTVILLE CDA CS  2000     6 meantemp          16.4 
##  7 KENTVILLE CDA CS  2000     7 meantemp          18.8 
##  8 KENTVILLE CDA CS  2000     8 meantemp          19.2 
##  9 KENTVILLE CDA CS  2000     9 meantemp          14.6 
## 10 KENTVILLE CDA CS  2000    10 meantemp           9.90
## # ... with 182 more rows

In the resulting data frame, the temperature_type column will contain the values “meantemp” and “extrmaxtemp”, which can be used as a grouping variable in a statistical test function. When using gather(), it is important to select only the relevant variables using select() first.

6.2.2 Paired Values

Some statistical tests are only possible or are preferable with paired values, or values that are stored in two columns in a data frame (i.e., part of the same observation). The example above of testing whether the mean monthly temperature (meantemp) is significantly different than the extreme maximum monthly temperature (extrmaxtemp) could also be done pairwise, in which case the original data is already in the correct format for the test. Sometimes the data is provided in a form where there is a grouping variable, and measured values are in the same column (this is the result of the above example where we converted meantemp and extrmaxtemp into a grouping variable and a measured variable). We can transform a grouping variable and a measured variable into paired observations using the spread() function.

climate_data_mean_max_temp %>%
  spread(key = temperature_type, value = temp)

## # A tibble: 96 x 5
##    station_name  year month extrmaxtemp meantemp
##  * <chr>        <int> <int>       <dbl>    <dbl>
##  1 GREENWOOD A   2000     1        18.0   - 4.40
##  2 GREENWOOD A   2000     2        17.8   - 3.10
##  3 GREENWOOD A   2000     3        17.9     2.00
##  4 GREENWOOD A   2000     4        20.0     6.40
##  5 GREENWOOD A   2000     5        21.3    10.4 
##  6 GREENWOOD A   2000     6        31.8    16.2 
##  7 GREENWOOD A   2000     7        29.4    19.0 
##  8 GREENWOOD A   2000     8        29.0    18.8 
##  9 GREENWOOD A   2000     9        31.0    14.1 
## 10 GREENWOOD A   2000    10        21.9     9.20
## # ... with 86 more rows
…
autocorrelation?

6.3 Testing for Normality

Some tests (notably the t-test, the ANOVA test, and the Pearson coefficient) require that the input values are normally distributed. For small amounts of replicate samples, this is generally a good assumption, however larger samples whose distribution cannot be assumed require a test for normality. One such test is the Shapiro-Wilk test, which is described below.

6.3.1 Test Data

The test for normality requires a data frame with one column that contains the values that should be normally distributed. In our example, we will test whether or not mean monthly temperature is normally distributed, and whether or not total montly precipitation is normally distributed. It is also good practice to keep qualifying variables that give context to each observation.

normal_test_data <- climate_data %>%
  select(station_name, year, month, meantemp, totalprecip)
normal_test_data

## # A tibble: 96 x 5
##    station_name      year month meantemp totalprecip
##    <chr>            <int> <int>    <dbl>       <dbl>
##  1 KENTVILLE CDA CS  2000     1   - 4.20       182  
##  2 KENTVILLE CDA CS  2000     2   - 2.60        10.7
##  3 KENTVILLE CDA CS  2000     3     1.60       116  
##  4 KENTVILLE CDA CS  2000     4     6.40        89.1
##  5 KENTVILLE CDA CS  2000     5    10.0         58.0
##  6 KENTVILLE CDA CS  2000     6    16.4         46.0
##  7 KENTVILLE CDA CS  2000     7    18.8         72.4
##  8 KENTVILLE CDA CS  2000     8    19.2         36.6
##  9 KENTVILLE CDA CS  2000     9    14.6         58.4
## 10 KENTVILLE CDA CS  2000    10     9.90       198  
## # ... with 86 more rows
…
6.4 Correlation and Linear Regression

Tests for correlation of two variables test whether or not a relationship exists between the two variables (i.e., can any of the variance of one variable be explained by variance in the other). This is often done to test association between two parameters when these measurements are paired. In our example, we will test the corellation between mean monthly temperature and total monthly precipitation, to ascertain whether or not a statistically significant relationship exists between the two.

6.4.1 Test Data

Correlation tests all require a data frame with one column for the x variable and one column for the y variable. It is often useful to keep other qualifying variables that give context to each observation, but are not required by the test. In our case, the x variable will be meantemp and the y variable will be totalprecip.

correlation_test_data <- climate_data %>% 
  select(station_name, year, month, meantemp, totalprecip)
correlation_test_data

## # A tibble: 96 x 5
##    station_name      year month meantemp totalprecip
##    <chr>            <int> <int>    <dbl>       <dbl>
##  1 KENTVILLE CDA CS  2000     1   - 4.20       182  
##  2 KENTVILLE CDA CS  2000     2   - 2.60        10.7
##  3 KENTVILLE CDA CS  2000     3     1.60       116  
##  4 KENTVILLE CDA CS  2000     4     6.40        89.1
##  5 KENTVILLE CDA CS  2000     5    10.0         58.0
##  6 KENTVILLE CDA CS  2000     6    16.4         46.0
##  7 KENTVILLE CDA CS  2000     7    18.8         72.4
##  8 KENTVILLE CDA CS  2000     8    19.2         36.6
##  9 KENTVILLE CDA CS  2000     9    14.6         58.4
## 10 KENTVILLE CDA CS  2000    10     9.90       198  
## # ... with 86 more rows
…
6.5 Significant differences

Tests for significant differences tests whether or not there is a significant difference among various groups of observations. Which test to use depends on whether or not the data are normally distributed, and how many groups exist. For our example, we will be looking at the diferences in mean temperature (meantemp) as grouped by several grouping variables (station_name, year, and month).

6.5.1 Test Data

Tests for significant differences require a data frame with a column containing the values to test, and a column containing the variable to group by (usually contains strings like “group1”, “group2”, “group3”, etc.). It is often useful to keep other qualifying variables that give context to each observation, but are not required by the test. In our case, the column in climate_data that contains the values we are testing is meantemp, and the columns that contain the groups are station_name, year, and month.

difference_test_data <- climate_data %>% 
  select(station_name, year, month, meantemp)
difference_test_data

## # A tibble: 96 x 4
##    station_name      year month meantemp
##    <chr>            <int> <int>    <dbl>
##  1 KENTVILLE CDA CS  2000     1   - 4.20
##  2 KENTVILLE CDA CS  2000     2   - 2.60
##  3 KENTVILLE CDA CS  2000     3     1.60
##  4 KENTVILLE CDA CS  2000     4     6.40
##  5 KENTVILLE CDA CS  2000     5    10.0 
##  6 KENTVILLE CDA CS  2000     6    16.4 
##  7 KENTVILLE CDA CS  2000     7    18.8 
##  8 KENTVILLE CDA CS  2000     8    19.2 
##  9 KENTVILLE CDA CS  2000     9    14.6 
## 10 KENTVILLE CDA CS  2000    10     9.90
## # ... with 86 more rows
…
