R for Paleolimnology
…
arnold_counts_excel <- read_excel(
  "data/lake_arnold_valve_counts.xlsx",
  sheet = "taxon counts",
  skip = 1
)

4.3 Transforming data

gather():

arnold_counts_excel %>%
  gather(key = depth_cm, value = valve_count, -taxon)

## # A tibble: 2,128 x 3
##    taxon                               depth_cm valve_count
##    <chr>                               <chr>          <dbl>
##  1 Achnanthes linearis fo. curta       0                 NA
##  2 Achnanthes marginulata              0                  8
##  3 Achnanthes minutissima              0                 NA
##  4 Achnanthes sp.                      0                 NA
##  5 Actinella punctata                  0                  3
##  6 Anomoeoneis serians                 0                  5
##  7 Anomoeoneis serians var. brachysira 0                  3
##  8 Anomoeoneis vitrea                  0                 NA
##  9 Caloneis ventricosa var. minuta     0                 NA
## 10 Cocconeis sp.                       0                 NA
## # ... with 2,118 more rows

Change type of depth column:

arnold_counts_excel %>%
  gather(key = depth_cm, value = valve_count, -taxon) %>%
  mutate(depth_cm = as.numeric(depth_cm))

## # A tibble: 2,128 x 3
##    taxon                               depth_cm valve_count
##    <chr>                                  <dbl>       <dbl>
##  1 Achnanthes linearis fo. curta              0          NA
##  2 Achnanthes marginulata                     0           8
##  3 Achnanthes minutissima                     0          NA
##  4 Achnanthes sp.                             0          NA
##  5 Actinella punctata                         0           3
##  6 Anomoeoneis serians                        0           5
##  7 Anomoeoneis serians var. brachysira        0           3
##  8 Anomoeoneis vitrea                         0          NA
##  9 Caloneis ventricosa var. minuta            0          NA
## 10 Cocconeis sp.                              0          NA
## # ... with 2,118 more rows

Change NA valve counts to 0:

arnold_counts_excel %>%
  gather(key = depth_cm, value = valve_count, -taxon) %>%
  mutate(depth_cm = as.numeric(depth_cm)) %>%
  mutate(valve_count = if_else(is.na(valve_count), 0, valve_count))

## # A tibble: 2,128 x 3
##    taxon                               depth_cm valve_count
##    <chr>                                  <dbl>       <dbl>
##  1 Achnanthes linearis fo. curta              0           0
##  2 Achnanthes marginulata                     0           8
##  3 Achnanthes minutissima                     0           0
##  4 Achnanthes sp.                             0           0
##  5 Actinella punctata                         0           3
##  6 Anomoeoneis serians                        0           5
##  7 Anomoeoneis serians var. brachysira        0           3
##  8 Anomoeoneis vitrea                         0           0
##  9 Caloneis ventricosa var. minuta            0           0
## 10 Cocconeis sp.                              0           0
## # ... with 2,118 more rows
…
Things we can do with the data in this form:

Use a grouped mutate to calculate relative abundance:

arnold_rel_abund <- arnold_counts %>%
  group_by(depth_cm) %>%
  mutate(relative_abundance_percent = valve_count / sum(valve_count) * 100) %>%
  ungroup()

arnold_rel_abund

## # A tibble: 2,128 x 4
##    taxon                      depth_cm valve_count relative_abundance_per…
##    <chr>                         <dbl>       <dbl>                   <dbl>
##  1 Achnanthes linearis fo. c…        0           0                   0    
##  2 Achnanthes marginulata            0           8                   2.07 
##  3 Achnanthes minutissima            0           0                   0    
##  4 Achnanthes sp.                    0           0                   0    
##  5 Actinella punctata                0           3                   0.775
##  6 Anomoeoneis serians               0           5                   1.29 
##  7 Anomoeoneis serians var. …        0           3                   0.775
##  8 Anomoeoneis vitrea                0           0                   0    
##  9 Caloneis ventricosa var. …        0           0                   0    
## 10 Cocconeis sp.                     0           0                   0    
## # ... with 2,118 more rows

Summarise by taxon, find most common taxa:

arnold_rel_abund %>%
  group_by(taxon) %>%
  summarise(
    min_rel_abund = min(relative_abundance_percent),
    max_rel_abund = max(relative_abundance_percent),
    mean_rel_abund = mean(relative_abundance_percent)
  ) %>%
  arrange(desc(max_rel_abund))

## # A tibble: 133 x 4
##    taxon                        min_rel_abund max_rel_abund mean_rel_abund
##    <chr>                                <dbl>         <dbl>          <dbl>
##  1 Fragilaria construens                    0          30.8          1.92 
##  2 Fragilaria virescens var. b…             0          25.6          3.08 
##  3 Cymbella hebridica                       0          23.7          7.21 
##  4 Melosira distans                         0          23.5          7.18 
##  5 Pinnularia biceps                        0          21.1          7.13 
##  6 Pinnularia microstauron                  0          20.6          2.68 
##  7 Fragilaria brevistriata                  0          15.2          0.953
##  8 Fragilaria pinnata                       0          15            0.954
##  9 Navicula subtilissima                    0          14.9          6.21 
## 10 Anomoeoneis serians var. br…             0          13.0          4.78 
## # ... with 123 more rows
…
Use a left-join to add age-depth info:

arnold_age_depth <- read_excel(
  "data/lake_arnold_valve_counts.xlsx",
  sheet = "age depth model",
  skip = 1
)

arnold_rel_abund %>%
  left_join(arnold_age_depth, by = "depth_cm") %>%
  select(taxon, depth_cm, age_bp, everything())

## # A tibble: 2,128 x 5
##    taxon                 depth_cm age_bp valve_count relative_abundance_p…
##    <chr>                    <dbl>  <dbl>       <dbl>                 <dbl>
##  1 Achnanthes linearis …        0    -39           0                 0    
##  2 Achnanthes marginula…        0    -39           8                 2.07 
##  3 Achnanthes minutissi…        0    -39           0                 0    
##  4 Achnanthes sp.               0    -39           0                 0    
##  5 Actinella punctata           0    -39           3                 0.775
##  6 Anomoeoneis serians          0    -39           5                 1.29 
##  7 Anomoeoneis serians …        0    -39           3                 0.775
##  8 Anomoeoneis vitrea           0    -39           0                 0    
##  9 Caloneis ventricosa …        0    -39           0                 0    
## 10 Cocconeis sp.                0    -39           0                 0    
## # ... with 2,118 more rows
…
common_taxa

## [1] "Cymbella hebridica"                  
## [2] "Fragilaria construens"               
## [3] "Fragilaria virescens var. birostrata"
## [4] "Melosira distans"                    
## [5] "Pinnularia biceps"                   
## [6] "Pinnularia microstauron"

Filter the counts:

arnold_rel_abund %>%
  filter(taxon %in% common_taxa)

## # A tibble: 96 x 4
##    taxon                       depth_cm valve_count relative_abundance_pe…
##    <chr>                          <dbl>       <dbl>                  <dbl>
##  1 Cymbella hebridica                 0          24                  6.20 
##  2 Fragilaria construens              0           0                  0    
##  3 Fragilaria virescens var. …        0          99                 25.6  
##  4 Melosira distans                   0           0                  0    
##  5 Pinnularia biceps                  0           0                  0    
##  6 Pinnularia microstauron            0           0                  0    
##  7 Cymbella hebridica                 5          42                  8.59 
##  8 Fragilaria construens              5           0                  0    
##  9 Fragilaria virescens var. …        5          90                 18.4  
## 10 Melosira distans                   5           1                  0.204
## # ... with 86 more rows
…
