R for Paleolimnology
…
5.3 General stratigraphic diagrams

Stratigraphic diagrams are at heart, a set of plots that share a Y axis. The Y-axis represents time, which can be expressed as depth or as some unit of actual time (e.g., AD 2018, or 1200 years BP), and the X-axis is the value of each parameter. We will use the ggplot2 package to create these graphics for non-species data, and the analogue package to create the graphics for species composition data.

5.3.1 Data preparation

Getting your data in a form that is usable by the plotting function is most of the battle to creating a figure. In the case of ggplot(), we need the data to be in a “parameter-long” form, with one row for each measurement (each point on the graph). In Tutorial 4 we learned how to use gather() to turn a “parameter-wide” data frame into a “parameter-long” data frame. We are mostly going to focus on plotting the Pockwock Lake core, so we will also filter the data to include only one core for now.

halifax_geochem_meas <- halifax_geochem %>%
  filter(core_id == "POC15-2") %>%
  gather(key = param, value = value, -core_id, -depth_cm, -age_ad)

halifax_geochem_meas

## # A tibble: 312 x 5
##    core_id depth_cm age_ad param     value
##    <chr>      <dbl>  <dbl> <chr>     <dbl>
##  1 POC15-2      0    2016. C_percent  NA  
##  2 POC15-2      0.5  2015. C_percent  20.1
##  3 POC15-2      1    2014. C_percent  NA  
##  4 POC15-2      1.5  2013. C_percent  21.5
##  5 POC15-2      2    2011. C_percent  20.5
##  6 POC15-2      2.5  2009. C_percent  20.2
##  7 POC15-2      3    2006. C_percent  20.1
##  8 POC15-2      3.5  2003. C_percent  19.0
##  9 POC15-2      4    2000. C_percent  17.9
## 10 POC15-2      4.5  1997. C_percent  16.8
## # ... with 302 more rows
…
5.5.1 Using ggplot2

5.5.1.1 Data setup

Similar to non-speices data, ggplot2 needs the data to be in “parameter-long” form. Usually the value plotted on the X-axis of species composition plots is a relative abundance (in percent), which we can calculate using a grouped mutate().

arnold_counts <- arnold_counts_csv %>%
  gather(-age_bp, -depth_cm, key = taxon, value = valve_count) %>%
  group_by(depth_cm) %>%
  mutate(relative_abundance_percent = valve_count / sum(valve_count) * 100) %>%
  ungroup()

arnold_counts

## # A tibble: 2,128 x 5
##    depth_cm age_bp taxon                  valve_count relative_abundance_…
##       <int>  <int> <chr>                        <int>                <dbl>
##  1        0    -39 Achnanthes marginulata           8                 2.07
##  2        5     12 Achnanthes marginulata          11                 2.25
##  3       45    445 Achnanthes marginulata           7                 1.76
##  4       75    795 Achnanthes marginulata          12                 3.26
##  5      115   1373 Achnanthes marginulata           6                 1.24
##  6      175   2314 Achnanthes marginulata          13                 3.39
##  7      235   3469 Achnanthes marginulata          21                 6.07
##  8      275   4243 Achnanthes marginulata          25                 6.56
##  9      325   5218 Achnanthes marginulata          20                 5.90
## 10      375   6196 Achnanthes marginulata           4                 1.02
## # ... with 2,118 more rows
…
arnold_counts_common <- arnold_counts %>%
  filter(taxon %in% arnold_common_taxa) %>%
  mutate(taxon = factor(taxon, levels = arnold_common_taxa)) %>%
  arrange(taxon)

arnold_counts_common

## # A tibble: 176 x 5
##    depth_cm age_bp taxon                   valve_count relative_abundance…
##       <int>  <int> <fct>                         <int>               <dbl>
##  1        0    -39 Surirella delicatissima          49              12.7  
##  2        5     12 Surirella delicatissima          37               7.57 
##  3       45    445 Surirella delicatissima          16               4.02 
##  4       75    795 Surirella delicatissima          23               6.25 
##  5      115   1373 Surirella delicatissima          22               4.55 
##  6      175   2314 Surirella delicatissima          28               7.29 
##  7      235   3469 Surirella delicatissima          11               3.18 
##  8      275   4243 Surirella delicatissima          24               6.30 
##  9      325   5218 Surirella delicatissima           5               1.47 
## 10      375   6196 Surirella delicatissima           2               0.508
## # ... with 166 more rows
…
