R for Paleolimnology
…
2.6.1 Exercises

Inspect recent_stable_isotopes_pipe to ensure it is identical to recent_stable_isotopes.

Create a data frame of stable isotope data from surface samples (depth_cm == 0) using halifax_geochem, filter(), select(), and %>% and assign it to a variable of a suitable name.

2.7 Arranging (sorting) A Data Frame

Sometimes it is desirable to view rows in a particular order, which can be used to quickly determine min and max values of various parameters. You can do this in the interactive editor using View(), but sometimes rows need to be in particular order for plotting or other analysis. This is done using the arrange() function. For example, it may make sense to view halifax_geochem in ascending core_id and depth_cm order (most recent first):

halifax_geochem %>%
  arrange(core_id, depth_cm)

## # A tibble: 326 x 9
##    core_id depth_cm age_ad C_percent `C/N` d13C_permille d15N_permille
##    <chr>      <dbl>  <dbl>     <dbl> <dbl>         <dbl>         <dbl>
##  1 BEN15-2      0    2016.      14.8  12.2         -30.2          2.46
##  2 BEN15-2      0.5  2015.      14.7  12.2         -30.3          2.45
##  3 BEN15-2      1    2014.      14.9  11.9         -30.4          2.34
##  4 BEN15-2      1.5  2013.      14.5  11.7         -30.3          2.53
##  5 BEN15-2      2    2011.      14.4  11.6         -30.4          2.66
##  6 BEN15-2      2.5  2010.      14.4  11.9         -30.3          2.48
##  7 BEN15-2      3    2008.      14.4  11.9         -30.3          2.53
##  8 BEN15-2      3.5  2005.      14.3  12.0         -30.2          2.60
##  9 BEN15-2      4    2002.      14.0  12.0         -30.2          2.60
## 10 BEN15-2      4.5  1999.      13.7  12.1         -30.2          2.48
## # ... with 316 more rows, and 2 more variables: K_percent <dbl>,
## #   Ti_percent <dbl>

Or descending depth order (most recent last):

halifax_geochem %>%
  arrange(core_id, desc(depth_cm))

## # A tibble: 326 x 9
##    core_id depth_cm age_ad C_percent `C/N` d13C_permille d15N_permille
##    <chr>      <dbl>  <dbl>     <dbl> <dbl>         <dbl>         <dbl>
##  1 BEN15-2       29  1742.      14.5  13.4         -29.3          3.54
##  2 BEN15-2       28  1751.      14.5  13.5         -29.3          3.60
##  3 BEN15-2       27  1759.      15.1  13.4         -29.4          3.60
##  4 BEN15-2       26  1768.      15.9  13.5         -29.5          3.57
##  5 BEN15-2       25  1776.      16.7  13.4         -29.6          3.42
##  6 BEN15-2       24  1784.      16.8  13.4         -29.5          3.42
##  7 BEN15-2       23  1793.      16.5  13.5         -29.4          3.39
##  8 BEN15-2       22  1801.      17.2  13.4         -29.4          3.41
##  9 BEN15-2       21  1810.      17.3  13.6         -29.4          3.22
## 10 BEN15-2       20  1818.      17.6  13.5         -29.4          3.18
## # ... with 316 more rows, and 2 more variables: K_percent <dbl>,
## #   Ti_percent <dbl>
…
The distinct() function can take any number of column names as arguments, although in this particular dataset there isn’t a good example for this.

2.9 Calculating columns using mutate()

To create a brand-new column, we can use the mutate() function. This creates a column in a way that we can use existing column names to calculate a new column. For example, we could convert the age_ad column to years before 1950:

halifax_geochem %>%
  mutate(age_bp = 1950 - age_ad) %>%
  select(core_id, age_ad, age_bp)

## # A tibble: 326 x 3
##    core_id age_ad age_bp
##    <chr>    <dbl>  <dbl>
##  1 BEN15-2  2016.  -65.9
##  2 BEN15-2  2015.  -65.2
##  3 BEN15-2  2014.  -64.5
##  4 BEN15-2  2013.  -62.9
##  5 BEN15-2  2011.  -61.4
##  6 BEN15-2  2010.  -59.6
##  7 BEN15-2  2008.  -57.8
##  8 BEN15-2  2005.  -54.9
##  9 BEN15-2  2002.  -52.1
## 10 BEN15-2  1999.  -49.3
## # ... with 316 more rows

Or, we could convert the K_percent and Ti_percent columns to parts per million:

halifax_geochem %>%
  mutate(
    K_ppm = K_percent * 10000,
    Ti_ppm = Ti_percent * 10000
  ) %>%
  select(core_id, K_percent, K_ppm, Ti_percent, Ti_ppm)

## # A tibble: 326 x 5
##    core_id K_percent  K_ppm Ti_percent Ti_ppm
##    <chr>       <dbl>  <dbl>      <dbl>  <dbl>
##  1 BEN15-2     1.00  10026       0.169  1693 
##  2 BEN15-2     1.09  10857.      0.182  1823 
##  3 BEN15-2     0.978  9782       0.168  1678 
##  4 BEN15-2     0.942  9423       0.166  1664 
##  5 BEN15-2     1.08  10784.      0.183  1832.
##  6 BEN15-2     1.09  10863       0.183  1830 
##  7 BEN15-2     1.04  10374.      0.176  1762 
##  8 BEN15-2     0.97   9700       0.167  1670 
##  9 BEN15-2     1.12  11175       0.179  1791 
## 10 BEN15-2     1.01  10064.      0.17   1700.
## # ... with 316 more rows
…
