R for Paleolimnology
…
- Sometimes it is desirable to view rows in a particular order, which can be used to quickly determine min and max values of various parameters.

This is done using the `arrange()` function. For example, it may make sense to view `halifax_geochem` in ascending `core_id` and `depth_cm` order (most recent first):

--

```r
halifax_geochem %>%
  arrange(core_id, depth_cm)
```

```
## # A tibble: 326 x 9
##    core_id depth_cm age_ad C_percent `C/N` d13C_permille d15N_permille
##    <chr>      <dbl>  <dbl>     <dbl> <dbl>         <dbl>         <dbl>
##  1 BEN15-2      0    2016.      14.8  12.2         -30.2          2.46
##  2 BEN15-2      0.5  2015.      14.7  12.2         -30.3          2.45
##  3 BEN15-2      1    2014.      14.9  11.9         -30.4          2.34
##  4 BEN15-2      1.5  2013.      14.5  11.7         -30.3          2.53
##  5 BEN15-2      2    2011.      14.4  11.6         -30.4          2.66
##  6 BEN15-2      2.5  2010.      14.4  11.9         -30.3          2.48
##  7 BEN15-2      3    2008.      14.4  11.9         -30.3          2.53
##  8 BEN15-2      3.5  2005.      14.3  12.0         -30.2          2.60
##  9 BEN15-2      4    2002.      14.0  12.0         -30.2          2.60
## 10 BEN15-2      4.5  1999.      13.7  12.1         -30.2          2.48
## # ... with 316 more rows, and 2 more variables: K_percent <dbl>,
## #   Ti_percent <dbl>
```

--

Or descending depth order (most recent last):

```r
halifax_geochem %>%
  arrange(core_id, desc(depth_cm))
```

# A tibble: 326 x 9
   core_id depth_cm age_ad C_percent `C/N` d13C_permille d15N_permille
   <chr>      <dbl>  <dbl>     <dbl> <dbl>         <dbl>         <dbl>
 1 BEN15-2       29  1742.      14.5  13.4         -29.3          3.54
 2 BEN15-2       28  1751.      14.5  13.5         -29.3          3.60
 3 BEN15-2       27  1759.      15.1  13.4         -29.4          3.60
 4 BEN15-2       26  1768.      15.9  13.5         -29.5          3.57
 5 BEN15-2       25  1776.      16.7  13.4         -29.6          3.42
 6 BEN15-2       24  1784.      16.8  13.4         -29.5          3.42
 7 BEN15-2       23  1793.      16.5  13.5         -29.4          3.39
 8 BEN15-2       22  1801.      17.2  13.4         -29.4          3.41
 9 BEN15-2       21  1810.      17.3  13.6         -29.4          3.22
10 BEN15-2       20  1818.      17.6  13.5         -29.4          3.18
# ... with 316 more rows, and 2 more variables: K_percent <dbl>,
#   Ti_percent <dbl>
